%YAML 1.1
%TAG !u! tag:unity3d.com,2011:
--- !u!114 &11400000
MonoBehaviour:
  m_ObjectHideFlags: 0
  m_CorrespondingSourceObject: {fileID: 0}
  m_PrefabInstance: {fileID: 0}
  m_PrefabAsset: {fileID: 0}
  m_GameObject: {fileID: 0}
  m_Enabled: 1
  m_EditorHideFlags: 0
  m_Script: {fileID: 11500000, guid: adf566f193ab45d4a8812bd4b5e7d9ea, type: 3}
  m_Name: Localization_Ru
  m_EditorClassIdentifier: 
  vocabulary:
  - key: '[HarmonicOscillationCalculator]'
    word: "\u0413\u0430\u0440\u043C\u043E\u043D\u0438\u0447\u0435\u0441\u043A\u043E\u0435"
  - key: '[GrowingOscillationCalculator]'
    word: "\u041D\u0430\u0440\u0430\u0441\u0442\u0430\u044E\u0449\u0435\u0435"
  - key: '[DampingOscillationCalculator]'
    word: "\u0417\u0430\u0442\u0443\u0445\u0430\u044E\u0449\u0435\u0435"
  - key: '[Parameters]'
    word: "\u041F\u0430\u0440\u0430\u043C\u0435\u0442\u0440\u044B"
  - key: '[DescriptionHarmonic]'
    word: "\u0413\u0430\u0440\u043C\u043E\u043D\u0438\u0447\u0435\u0441\u043A\u0438\u0435
      \u043A\u043E\u043B\u0435\u0431\u0430\u043D\u0438\u044F - \u044D\u0442\u043E
      \u043A\u043E\u043B\u0435\u0431\u0430\u043D\u0438\u044F \u0441\u043E\u0432\u0435\u0440\u0448\u0430\u044E\u0449\u0438\u0435\u0441\u044F
      \u043F\u043E\u0434 \u0434\u0435\u0439\u0441\u0442\u0432\u0438\u0435\u043C \u0432\u043D\u0435\u0448\u043D\u0435\u0439
      \u043F\u0435\u0440\u0438\u043E\u0434\u0438\u0447\u0435\u0441\u043A\u043E\u0439
      \u0441\u0438\u043B\u044B, \u043D\u0430\u0437\u044B\u0432\u0430\u044E\u0442\u0441\u044F
      \u0432\u044B\u043D\u0443\u0436\u0434\u0435\u043D\u043D\u044B\u043C\u0438. "
  - key: '[GrowingOscillation]'
    word: "\u041D\u0430\u0440\u0430\u0441\u0442\u0430\u044E\u0449\u0438\u0435 \u043A\u043E\u043B\u0435\u0431\u0430\u043D\u0438\u044F
      - \u044D\u0442\u043E \u043C\u0435\u0445\u0430\u043D\u0438\u0447\u0435\u0441\u043A\u0438\u0435
      \u043A\u043E\u043B\u0435\u0431\u0430\u043D\u0438\u044F \u0441 \u0443\u0432\u0435\u043B\u0438\u0447\u0438\u0432\u0430\u044E\u0449\u0438\u043C\u0438\u0441\u044F
      \u0432\u043E \u0432\u0440\u0435\u043C\u0435\u043D\u0438 \u0437\u043D\u0430\u0447\u0435\u043D\u0438\u044F\u043C\u0438
      \u0440\u0430\u0437\u043C\u0430\u0445\u0430 \u043E\u0431\u043E\u0431\u0449\u0435\u043D\u043D\u043E\u0439
      \u043A\u043E\u043E\u0440\u0434\u0438\u043D\u0430\u0442\u044B \u0438\u043B\u0438
      \u0435\u0435 \u043F\u0440\u043E\u0438\u0437\u0432\u043E\u0434\u043D\u043E\u0439
      \u043F\u043E \u0432\u0440\u0435\u043C\u0435\u043D\u0438"
  - key: '[DampingOscillation]'
    word: "\u0417\u0430\u0442\u0443\u0445\u0430\u044E\u0449\u0435\u0435 \u043A\u043E\u043B\u0435\u0431\u0430\u043D\u0438\u0435
      - \u044D\u0442\u043E \u043A\u043E\u043B\u0435\u0431\u0430\u043D\u0438\u0435
      \u0432\u043E\u0437\u043D\u0438\u043A\u0430\u044E\u0449\u0438\u0435 \u043F\u043E\u0434
      \u0434\u0435\u0439\u0441\u0442\u0432\u0438\u0435\u043C \u0432\u043D\u0443\u0442\u0440\u0435\u043D\u043D\u0438\u0445
      \u0441\u0438\u043B, \u043F\u043E\u0441\u043B\u0435 \u0432\u044B\u0432\u0435\u0434\u0435\u043D\u0438\u044F
      \u0441\u0438\u0441\u0442\u0435\u043C\u044B \u0438\u0437 \u043F\u043E\u043B\u043E\u0436\u0435\u043D\u0438\u044F
      \u0440\u0430\u0432\u043D\u043E\u0432\u0435\u0441\u0438\u044F"
  - key: '[Amplitude]'
    word: "\u0410\u043C\u043F\u043B\u0438\u0442\u0443\u0434\u0430"
  - key: '[Frequency]'
    word: "\u0427\u0430\u0441\u0442\u043E\u0442\u0430"
  - key: '[Phase]'
    word: "\u0424\u0430\u0437\u0430"
  - key: '[Damping]'
    word: "\u0417\u0430\u0442\u0443\u0445\u0430\u043D\u0438\u0435"
  - key: '[Growing]'
    word: "\u041D\u0430\u0440\u0430\u0441\u0442\u0430\u043D\u0438\u0435"
  - key: '[AdditionOscillation]'
    word: "\u0421\u043B\u043E\u0436\u043D\u043E\u0435 \u043A\u043E\u043B\u0435\u0431\u0430\u043D\u0438\u0435
      \u2013 \u044D\u0442\u043E \u0441\u0443\u043C\u043C\u0430 \u043D\u0435\u0441\u043A\u043E\u043B\u044C\u043A\u0438\u0445
      \u043A\u043E\u043B\u0435\u0431\u0430\u043D\u0438\u0439, \u0435\u0441\u043B\u0438
      \u0447\u0430\u0441\u0442\u043E\u0442\u044B \u0441\u043A\u043B\u0430\u0434\u044B\u0432\u0430\u0435\u043C\u044B\u0445
      \u043A\u043E\u043B\u0435\u0431\u0430\u043D\u0438\u0439 \u043D\u0435 \u0440\u0430\u0432\u043D\u044B
      \u0434\u0440\u0443\u0433 \u0434\u0440\u0443\u0433\u0443, \u0442\u043E \u0440\u0435\u0437\u0443\u043B\u044C\u0442\u0438\u0440\u0443\u044E\u0449\u0435\u0435
      \u043A\u043E\u043B\u0435\u0431\u0430\u043D\u0438\u0435 \u043D\u0435 \u0431\u0443\u0434\u0435\u0442
      \u0433\u0430\u0440\u043C\u043E\u043D\u0438\u0447\u0435\u0441\u043A\u0438\u043C
      \u0438 \u0435\u0433\u043E \u0430\u043C\u043F\u043B\u0438\u0442\u0443\u0434\u0430
      \u0431\u0443\u0434\u0435\u0442 \u043D\u0435\u043F\u043E\u0441\u0442\u043E\u044F\u043D\u043D\u0430."
  - key: '[AdditionHarmonicOscillationsFunction]'
    word: "\u0421\u043B\u043E\u0436\u0435\u043D\u0438\u0435"
  - key: '[Harmonic]'
    word: "\u0413\u0430\u0440\u043C\u043D\u0438\u0447\u0435\u0441\u043A\u043E\u0435"
  - key: '[Damped]'
    word: "\u0417\u0430\u0442\u0443\u0445\u0430\u044E\u0449\u0435\u0435"
  - key: '[Grow]'
    word: "\u041D\u0430\u0440\u0430\u0441\u0442\u0430\u044E\u0449\u0435\u0435"
